[
        { 
            "name":"Kanye West",
            "votes":{
                "likes": 1,
                "dislikes": 1
            },
            "timeInProfetion": "1 mounth ago",
            "profession": "Entretaiment",
            "description": "Half-giant jinxes peg-leg gillywater broken glasses large black dog Great Hall. Nearly-Headless Nick now string them together, and answer me this",
            "urlPicture": "/Kanye.png"
        },
        { 
            "name":"mark zuckerberg",
            "votes":{
                "likes": 36,
                "dislikes": 64
            },
            "timeInProfetion": "1 mounth ago",
            "profession": "Bussines",
            "description": "Half-giant jinxes peg-leg gillywater broken glasses large black dog Great Hall. Nearly-Headless Nick now string them together, and answer me this",
            "urlPicture": "/Mark.png"
        },
        { 
            "name":"cristina fernandez de kirchner",
            "votes":{
                "likes": 36,
                "dislikes": 64
            },
            "timeInProfetion": "1 mounth ago",
            "profession": "Politics",
            "description": "Half-giant jinxes peg-leg gillywater broken glasses large black dog Great Hall. Nearly-Headless Nick now string them together, and answer me this",
            "urlPicture": "/Cristina.png"
        },
        { 
            "name":"Malala Yousafzai",
            "votes":{
                "likes": 64,
                "dislikes": 36
            },
            "timeInProfetion": "1 mounth ago",
            "profession": "Entretaiment",
            "description": "Half-giant jinxes peg-leg gillywater broken glasses large black dog Great Hall. Nearly-Headless Nick now string them together, and answer me this",
            "urlPicture": "/Malala.png"
        }
]
